degree,average_cc
1,0.0
2,0.545454545455
3,0.339285714286
4,0.37898089172
5,0.458187134503
6,0.503883495146
7,0.490685504971
8,0.499789915966
9,0.506493506494
10,0.510505050505
11,0.52766798419
12,0.460052910053
13,0.467607700941
14,0.458289022805
15,0.50758377425
16,0.520204517705
17,0.530963438007
18,0.496051198257
19,0.51648044508
20,0.446822325421
21,0.477752351894
22,0.46678514468
23,0.447619047619
24,0.47619047619
25,0.456930171278
26,0.445512820513
27,0.508148148148
28,0.420828402367
29,0.431861348528
30,0.422146636432
31,0.431855500821
32,0.415325670498
33,0.426762246117
34,0.436155913978
35,0.436079545455
36,0.43137254902
37,0.422408963585
38,0.381746031746
39,0.416291291291
40,0.393009550904
41,0.384615384615
42,0.412820512821
43,0.415447154472
44,0.440572977158
45,0.386858619417
46,0.391384778013
47,0.364646464646
48,0.367149758454
49,0.427012025902
50,0.364361702128
51,0.381164965986
52,0.45306122449
53,0.407581699346
54,0.395776772247
55,0.38679245283
56,0.38667598416
57,0.391919191919
58,0.285714285714
59,0.449874686717
60,0.333131679774
138,0.219008714597
62,0.397740112994
63,0.295901639344
64,0.305482108232
65,0.376600102407
66,0.349867724868
67,0.389423076923
68,0.305128205128
69,0.312980551787
70,0.33538191396
71,0.364663256607
73,0.310798122066
75,0.331811263318
78,0.298596491228
80,0.300033300033
81,0.310126582278
82,0.33164556962
83,0.285339506173
270,0.132539549444
86,0.295467584624
87,0.298599439776
89,0.310612135793
271,0.131027021029
94,0.296703296703
95,0.311594202899
96,0.321551132464
97,0.315117581187
98,0.291666666667
99,0.248496563574
101,0.285508142651
102,0.308686868687
779,0.037873661585
361,0.0985356592646
107,0.25695970696
108,0.285893980234
61,0.370426651081
112,0.240366972477
113,0.25864045864
115,0.268489254109
116,0.268436578171
117,0.27879481312
118,0.262743628186
105,0.253188654102
121,0.287281014101
122,0.256022408964
278,0.133096179183
135,0.240601503759
137,0.255389718076
394,0.0892269951459
143,0.254609929078
144,0.230846069324
146,0.203088578089
151,0.220388173408
282,0.131822836662
158,0.222332506203
160,0.235185035878
163,0.207142857143
164,0.22168545357
424,0.0839121477862
957,0.0274753860845
194,0.182755235602
201,0.180498451855
203,0.175737976783
468,0.0740227975449
469,0.0744961446913
215,0.155638231907
217,0.173266681156
486,0.0694608421881
239,0.152649645999
240,0.153707052441
104,0.271015336828
249,0.144465290807
213,0.164658090724
