min_fitness,change_size
0.35469903678037207,1
0.35969682739893283,1
0.9792063063979286,1
0.6481212925915458,1
0.6126316226796301,1
0.17970561677984453,1
0.4778634007092982,1
0.9807773977389468,1
0.5046359064175642,1
0.12289010746002271,1
0.6865384000402357,1
0.9176448778802617,1
0.5754385964159642,1
0.7759254956905732,1
0.4577226310449696,1
0.4242688206935036,1
0.3678338255991189,1
0.5670221957610958,1
0.2860937635794585,1
0.16179568944095668,6
0.24791260849699093,2
0.8335571688922057,2
0.0656561273284959,2
0.38128266785579457,2
0.24674976860702968,2
0.6300464133412399,2
0.4009848471766634,2
0.8900396645661642,2
0.9644979577450935,2
0.23561450293405783,2
0.9505749271209343,2
0.2592598706432506,2
0.7131201580608375,2
0.8104683184893002,2
0.24138440848027587,23
0.1593124691569674,5
0.1634224094490363,10
0.27861170479834485,20
0.07100148895767044,2
0.35204880174641906,2
0.04564941493319685,2
0.49062848750571064,2
0.3626761499095841,2
0.19734926656141671,2
0.19734926656141671,7
0.021645699534622365,11
0.22102113700419024,8
0.08232763911765584,3
0.08232763911765584,3
0.05733310522473445,18
0.05733310522473445,3
0.05733310522473445,8
0.02436682199302531,12
0.02436682199302531,11
0.013388946648046796,1
0.07236991510349422,14
0.07236991510349422,8
0.07236991510349422,3
0.07236991510349422,9
0.03266666619485992,4
0.03266666619485992,22
0.0038585155611506883,3
0.0038585155611506883,4
0.0038585155611506883,4
0.0038585155611506883,6
0.0038585155611506883,3
0.006282395458951928,16
0.006282395458951928,3
0.04516247025509823,11
0.04516247025509823,3
0.04516247025509823,15
0.043684619331432306,8
0.043684619331432306,5
0.043684619331432306,9
0.05306189568472741,7
